%YAML 1.1
%TAG !u! tag:unity3d.com,2011:
--- !u!1001 &2067235092843318843
PrefabInstance:
  m_ObjectHideFlags: 0
  serializedVersion: 2
  m_Modification:
    m_TransformParent: {fileID: 0}
    m_Modifications:
    - target: {fileID: 765263953029894094, guid: 8dce4d9d1cf8e0b40839f59095069102,
        type: 3}
      propertyPath: m_Name
      value: Cloud brown 2
      objectReference: {fileID: 0}
    - target: {fileID: 765263953029894095, guid: 8dce4d9d1cf8e0b40839f59095069102,
        type: 3}
      propertyPath: m_LocalPosition.x
      value: 0
      objectReference: {fileID: 0}
    - target: {fileID: 765263953029894095, guid: 8dce4d9d1cf8e0b40839f59095069102,
        type: 3}
      propertyPath: m_LocalPosition.y
      value: 0
      objectReference: {fileID: 0}
    - target: {fileID: 765263953029894095, guid: 8dce4d9d1cf8e0b40839f59095069102,
        type: 3}
      propertyPath: m_LocalPosition.z
      value: 0
      objectReference: {fileID: 0}
    - target: {fileID: 765263953029894095, guid: 8dce4d9d1cf8e0b40839f59095069102,
        type: 3}
      propertyPath: m_LocalRotation.x
      value: 0
      objectReference: {fileID: 0}
    - target: {fileID: 765263953029894095, guid: 8dce4d9d1cf8e0b40839f59095069102,
        type: 3}
      propertyPath: m_LocalRotation.y
      value: 0
      objectReference: {fileID: 0}
    - target: {fileID: 765263953029894095, guid: 8dce4d9d1cf8e0b40839f59095069102,
        type: 3}
      propertyPath: m_LocalRotation.z
      value: 0
      objectReference: {fileID: 0}
    - target: {fileID: 765263953029894095, guid: 8dce4d9d1cf8e0b40839f59095069102,
        type: 3}
      propertyPath: m_LocalRotation.w
      value: 1
      objectReference: {fileID: 0}
    - target: {fileID: 765263953029894095, guid: 8dce4d9d1cf8e0b40839f59095069102,
        type: 3}
      propertyPath: m_RootOrder
      value: 0
      objectReference: {fileID: 0}
    - target: {fileID: 765263953029894095, guid: 8dce4d9d1cf8e0b40839f59095069102,
        type: 3}
      propertyPath: m_LocalEulerAnglesHint.x
      value: 0
      objectReference: {fileID: 0}
    - target: {fileID: 765263953029894095, guid: 8dce4d9d1cf8e0b40839f59095069102,
        type: 3}
      propertyPath: m_LocalEulerAnglesHint.y
      value: 0
      objectReference: {fileID: 0}
    - target: {fileID: 765263953029894095, guid: 8dce4d9d1cf8e0b40839f59095069102,
        type: 3}
      propertyPath: m_LocalEulerAnglesHint.z
      value: 0
      objectReference: {fileID: 0}
    - target: {fileID: 765263953029894095, guid: 8dce4d9d1cf8e0b40839f59095069102,
        type: 3}
      propertyPath: m_LocalScale.x
      value: 0.28
      objectReference: {fileID: 0}
    - target: {fileID: 765263953029894095, guid: 8dce4d9d1cf8e0b40839f59095069102,
        type: 3}
      propertyPath: m_LocalScale.y
      value: 0.28
      objectReference: {fileID: 0}
    - target: {fileID: 765263953029894093, guid: 8dce4d9d1cf8e0b40839f59095069102,
        type: 3}
      propertyPath: m_Sprite
      value: 
      objectReference: {fileID: 21300000, guid: 594dcb8d097cd8541a3c26cb0c6ba79c,
        type: 3}
    - target: {fileID: 765263953029894092, guid: 8dce4d9d1cf8e0b40839f59095069102,
        type: 3}
      propertyPath: m_Offset.x
      value: -0.015685048
      objectReference: {fileID: 0}
    - target: {fileID: 765263953029894092, guid: 8dce4d9d1cf8e0b40839f59095069102,
        type: 3}
      propertyPath: m_Offset.y
      value: 0.5803786
      objectReference: {fileID: 0}
    - target: {fileID: 765263953029894092, guid: 8dce4d9d1cf8e0b40839f59095069102,
        type: 3}
      propertyPath: m_Size.x
      value: 1.2740091
      objectReference: {fileID: 0}
    - target: {fileID: 765263953029894092, guid: 8dce4d9d1cf8e0b40839f59095069102,
        type: 3}
      propertyPath: m_Size.y
      value: 3.102998
      objectReference: {fileID: 0}
    - target: {fileID: 1307076022051380042, guid: 8dce4d9d1cf8e0b40839f59095069102,
        type: 3}
      propertyPath: multiplier
      value: 1
      objectReference: {fileID: 0}
    m_RemovedComponents: []
  m_SourcePrefab: {fileID: 100100000, guid: 8dce4d9d1cf8e0b40839f59095069102, type: 3}
