%YAML 1.1
%TAG !u! tag:unity3d.com,2011:
--- !u!1 &5211587063477399901
GameObject:
  m_ObjectHideFlags: 0
  m_CorrespondingSourceObject: {fileID: 0}
  m_PrefabInstance: {fileID: 0}
  m_PrefabAsset: {fileID: 0}
  serializedVersion: 6
  m_Component:
  - component: {fileID: 851665748034605799}
  - component: {fileID: 1787903474749108065}
  - component: {fileID: 6271040823754762506}
  - component: {fileID: 4039060646995140677}
  - component: {fileID: 6646499825905555092}
  - component: {fileID: 6309957868053040640}
  m_Layer: 0
  m_Name: Thijm_cloud_5
  m_TagString: Untagged
  m_Icon: {fileID: 0}
  m_NavMeshLayer: 0
  m_StaticEditorFlags: 0
  m_IsActive: 1
--- !u!4 &851665748034605799
Transform:
  m_ObjectHideFlags: 0
  m_CorrespondingSourceObject: {fileID: 0}
  m_PrefabInstance: {fileID: 0}
  m_PrefabAsset: {fileID: 0}
  m_GameObject: {fileID: 5211587063477399901}
  m_LocalRotation: {x: 0, y: 0, z: 0, w: 1}
  m_LocalPosition: {x: -5.72, y: -0.24, z: 0}
  m_LocalScale: {x: 1, y: 1, z: 1}
  m_Children: []
  m_Father: {fileID: 0}
  m_RootOrder: 0
  m_LocalEulerAnglesHint: {x: 0, y: 0, z: 0}
--- !u!212 &1787903474749108065
SpriteRenderer:
  m_ObjectHideFlags: 0
  m_CorrespondingSourceObject: {fileID: 0}
  m_PrefabInstance: {fileID: 0}
  m_PrefabAsset: {fileID: 0}
  m_GameObject: {fileID: 5211587063477399901}
  m_Enabled: 1
  m_CastShadows: 0
  m_ReceiveShadows: 0
  m_DynamicOccludee: 1
  m_MotionVectors: 1
  m_LightProbeUsage: 1
  m_ReflectionProbeUsage: 1
  m_RenderingLayerMask: 1
  m_RendererPriority: 0
  m_Materials:
  - {fileID: 10754, guid: 0000000000000000f000000000000000, type: 0}
  m_StaticBatchInfo:
    firstSubMesh: 0
    subMeshCount: 0
  m_StaticBatchRoot: {fileID: 0}
  m_ProbeAnchor: {fileID: 0}
  m_LightProbeVolumeOverride: {fileID: 0}
  m_ScaleInLightmap: 1
  m_ReceiveGI: 1
  m_PreserveUVs: 0
  m_IgnoreNormalsForChartDetection: 0
  m_ImportantGI: 0
  m_StitchLightmapSeams: 1
  m_SelectedEditorRenderState: 0
  m_MinimumChartSize: 4
  m_AutoUVMaxDistance: 0.5
  m_AutoUVMaxAngle: 89
  m_LightmapParameters: {fileID: 0}
  m_SortingLayerID: 0
  m_SortingLayer: 0
  m_SortingOrder: 0
  m_Sprite: {fileID: -1822486486243837960, guid: 7919da8bab9d466418f182e7658362bd,
    type: 3}
  m_Color: {r: 1, g: 1, b: 1, a: 1}
  m_FlipX: 0
  m_FlipY: 0
  m_DrawMode: 0
  m_Size: {x: 2.43, y: 3.2}
  m_AdaptiveModeThreshold: 0.5
  m_SpriteTileMode: 0
  m_WasSpriteAssigned: 1
  m_MaskInteraction: 0
  m_SpriteSortPoint: 0
--- !u!114 &6271040823754762506
MonoBehaviour:
  m_ObjectHideFlags: 0
  m_CorrespondingSourceObject: {fileID: 0}
  m_PrefabInstance: {fileID: 0}
  m_PrefabAsset: {fileID: 0}
  m_GameObject: {fileID: 5211587063477399901}
  m_Enabled: 1
  m_EditorHideFlags: 0
  m_Script: {fileID: 11500000, guid: 16d96c95fc65b7749a2d65134de92300, type: 3}
  m_Name: 
  m_EditorClassIdentifier: 
  _moveSpeed: 3
--- !u!114 &4039060646995140677
MonoBehaviour:
  m_ObjectHideFlags: 0
  m_CorrespondingSourceObject: {fileID: 0}
  m_PrefabInstance: {fileID: 0}
  m_PrefabAsset: {fileID: 0}
  m_GameObject: {fileID: 5211587063477399901}
  m_Enabled: 1
  m_EditorHideFlags: 0
  m_Script: {fileID: 11500000, guid: 056832e0bfeb07e44bff241ec408da4e, type: 3}
  m_Name: 
  m_EditorClassIdentifier: 
  multiplier: 2
--- !u!114 &6646499825905555092
MonoBehaviour:
  m_ObjectHideFlags: 0
  m_CorrespondingSourceObject: {fileID: 0}
  m_PrefabInstance: {fileID: 0}
  m_PrefabAsset: {fileID: 0}
  m_GameObject: {fileID: 5211587063477399901}
  m_Enabled: 1
  m_EditorHideFlags: 0
  m_Script: {fileID: 11500000, guid: 131fdec8e9419e74ea6732776083ddb5, type: 3}
  m_Name: 
  m_EditorClassIdentifier: 
--- !u!60 &6309957868053040640
PolygonCollider2D:
  m_ObjectHideFlags: 0
  m_CorrespondingSourceObject: {fileID: 0}
  m_PrefabInstance: {fileID: 0}
  m_PrefabAsset: {fileID: 0}
  m_GameObject: {fileID: 5211587063477399901}
  m_Enabled: 1
  m_Density: 1
  m_Material: {fileID: 0}
  m_IsTrigger: 1
  m_UsedByEffector: 0
  m_UsedByComposite: 0
  m_Offset: {x: 0, y: 0}
  m_SpriteTilingProperty:
    border: {x: 0, y: 0, z: 0, w: 0}
    pivot: {x: 0.5, y: 0.5}
    oldSize: {x: 0.92, y: 1.0371429}
    newSize: {x: 2.43, y: 3.2}
    adaptiveTilingThreshold: 0.5
    drawMode: 0
    adaptiveTiling: 0
  m_AutoTiling: 0
  m_Points:
    m_Paths:
    - - {x: 0.09714285, y: -0.32714286}
      - {x: 0.12571429, y: -0.33571428}
      - {x: 0.17999999, y: -0.33285713}
      - {x: 0.22, y: -0.32142857}
      - {x: 0.26285714, y: -0.27}
      - {x: 0.24857143, y: -0.19285715}
      - {x: 0.31428573, y: -0.13285714}
      - {x: 0.33142856, y: -0.10142857}
      - {x: 0.39714286, y: -0.092857145}
      - {x: 0.42285714, y: -0.08142857}
      - {x: 0.45714286, y: -0.035714284}
      - {x: 0.45714286, y: 0.015714286}
      - {x: 0.42857143, y: 0.055714287}
      - {x: 0.4, y: 0.07}
      - {x: 0.41428572, y: 0.10142857}
      - {x: 0.41142857, y: 0.13857143}
      - {x: 0.40571427, y: 0.16142857}
      - {x: 0.36571428, y: 0.19571428}
      - {x: 0.31714284, y: 0.20714286}
      - {x: 0.28857142, y: 0.23571429}
      - {x: 0.24, y: 0.29}
      - {x: 0.14857143, y: 0.33285713}
      - {x: 0.14571428, y: 0.37}
      - {x: 0.13142857, y: 0.39571428}
      - {x: 0.09142857, y: 0.4042857}
      - {x: 0.06, y: 0.4042857}
      - {x: 0.048571426, y: 0.40142858}
      - {x: 0.017142856, y: 0.37571427}
      - {x: -0.034285713, y: 0.37857142}
      - {x: -0.08571429, y: 0.35}
      - {x: -0.1, y: 0.32428572}
      - {x: -0.15428571, y: 0.33857143}
      - {x: -0.20571429, y: 0.33571428}
      - {x: -0.24857143, y: 0.31571427}
      - {x: -0.2742857, y: 0.2957143}
      - {x: -0.2942857, y: 0.25857142}
      - {x: -0.29142857, y: 0.22714286}
      - {x: -0.2657143, y: 0.19285715}
      - {x: -0.29999998, y: 0.16428572}
      - {x: -0.35999998, y: 0.15857142}
      - {x: -0.40857142, y: 0.12142857}
      - {x: -0.41714284, y: 0.09857143}
      - {x: -0.41428572, y: 0.06142857}
      - {x: -0.40857142, y: 0.047142856}
      - {x: -0.35999998, y: 0.01}
      - {x: -0.28, y: -0.018571429}
      - {x: -0.35714287, y: -0.03}
      - {x: -0.3942857, y: -0.04142857}
      - {x: -0.40857142, y: -0.047142856}
      - {x: -0.44285715, y: -0.07285714}
      - {x: -0.45714286, y: -0.09857143}
      - {x: -0.45714286, y: -0.15285714}
      - {x: -0.42, y: -0.21}
      - {x: -0.35714287, y: -0.2242857}
      - {x: -0.2942857, y: -0.22142857}
      - {x: -0.21428572, y: -0.21285714}
      - {x: -0.19142857, y: -0.20428571}
      - {x: -0.17142858, y: -0.17857143}
      - {x: -0.17142858, y: -0.16142857}
      - {x: -0.19142857, y: -0.13571428}
      - {x: -0.17142858, y: -0.11285714}
      - {x: -0.17142858, y: -0.15285714}
      - {x: -0.16571428, y: -0.17571428}
      - {x: -0.14, y: -0.20142856}
      - {x: -0.16285715, y: -0.25285715}
      - {x: -0.17428571, y: -0.31285715}
      - {x: -0.17142858, y: -0.38714287}
      - {x: -0.16, y: -0.39857143}
      - {x: -0.14857143, y: -0.39571428}
      - {x: -0.12285714, y: -0.27857143}
      - {x: -0.09714285, y: -0.23}
      - {x: -0.08285714, y: -0.23571429}
      - {x: -0.114285715, y: -0.30714285}
      - {x: -0.12, y: -0.35}
      - {x: -0.12, y: -0.44714284}
      - {x: -0.10285714, y: -0.5042857}
      - {x: -0.09428571, y: -0.51}
      - {x: -0.08571429, y: -0.50714284}
      - {x: -0.037142858, y: -0.39}
      - {x: 0.03142857, y: -0.31571427}
      - {x: 0.068571426, y: -0.31571427}
    - - {x: 0.39714286, y: 0.39571428}
      - {x: 0.30285713, y: 0.39571428}
      - {x: 0.25428572, y: 0.38142857}
      - {x: 0.25428572, y: 0.31}
      - {x: 0.27714285, y: 0.28142858}
      - {x: 0.30857143, y: 0.2642857}
      - {x: 0.3942857, y: 0.2642857}
      - {x: 0.43142858, y: 0.30142856}
      - {x: 0.43142858, y: 0.3557143}
      - {x: 0.42857143, y: 0.36714286}
    - - {x: -0.022857143, y: 0.51857144}
      - {x: -0.03142857, y: 0.5157143}
      - {x: -0.057142857, y: 0.49285713}
      - {x: -0.057142857, y: 0.4642857}
      - {x: -0.054285713, y: 0.45}
      - {x: -0.04, y: 0.42714286}
      - {x: 0.04, y: 0.42714286}
      - {x: 0.065714285, y: 0.43571427}
      - {x: 0.065714285, y: 0.49571428}
      - {x: 0.04, y: 0.51857144}
