%YAML 1.1
%TAG !u! tag:unity3d.com,2011:
--- !u!1001 &7492327961910948450
PrefabInstance:
  m_ObjectHideFlags: 0
  serializedVersion: 2
  m_Modification:
    m_TransformParent: {fileID: 0}
    m_Modifications:
    - target: {fileID: 5534082565656717454, guid: bda68884ecd6a364690076a1fd553eca,
        type: 3}
      propertyPath: m_Name
      value: placeholderBlijeNeusBGRightTierOneGray
      objectReference: {fileID: 0}
    - target: {fileID: 855402348452259951, guid: bda68884ecd6a364690076a1fd553eca,
        type: 3}
      propertyPath: m_LocalPosition.x
      value: 0
      objectReference: {fileID: 0}
    - target: {fileID: 855402348452259951, guid: bda68884ecd6a364690076a1fd553eca,
        type: 3}
      propertyPath: m_LocalPosition.y
      value: 0
      objectReference: {fileID: 0}
    - target: {fileID: 855402348452259951, guid: bda68884ecd6a364690076a1fd553eca,
        type: 3}
      propertyPath: m_LocalPosition.z
      value: 0
      objectReference: {fileID: 0}
    - target: {fileID: 855402348452259951, guid: bda68884ecd6a364690076a1fd553eca,
        type: 3}
      propertyPath: m_LocalRotation.x
      value: -0
      objectReference: {fileID: 0}
    - target: {fileID: 855402348452259951, guid: bda68884ecd6a364690076a1fd553eca,
        type: 3}
      propertyPath: m_LocalRotation.y
      value: -0
      objectReference: {fileID: 0}
    - target: {fileID: 855402348452259951, guid: bda68884ecd6a364690076a1fd553eca,
        type: 3}
      propertyPath: m_LocalRotation.z
      value: -0
      objectReference: {fileID: 0}
    - target: {fileID: 855402348452259951, guid: bda68884ecd6a364690076a1fd553eca,
        type: 3}
      propertyPath: m_LocalRotation.w
      value: 1
      objectReference: {fileID: 0}
    - target: {fileID: 855402348452259951, guid: bda68884ecd6a364690076a1fd553eca,
        type: 3}
      propertyPath: m_RootOrder
      value: 0
      objectReference: {fileID: 0}
    - target: {fileID: 855402348452259951, guid: bda68884ecd6a364690076a1fd553eca,
        type: 3}
      propertyPath: m_LocalEulerAnglesHint.x
      value: 0
      objectReference: {fileID: 0}
    - target: {fileID: 855402348452259951, guid: bda68884ecd6a364690076a1fd553eca,
        type: 3}
      propertyPath: m_LocalEulerAnglesHint.y
      value: 0
      objectReference: {fileID: 0}
    - target: {fileID: 855402348452259951, guid: bda68884ecd6a364690076a1fd553eca,
        type: 3}
      propertyPath: m_LocalEulerAnglesHint.z
      value: 0
      objectReference: {fileID: 0}
    - target: {fileID: 182502441440068086, guid: bda68884ecd6a364690076a1fd553eca,
        type: 3}
      propertyPath: m_Color.r
      value: 0.6544144
      objectReference: {fileID: 0}
    - target: {fileID: 182502441440068086, guid: bda68884ecd6a364690076a1fd553eca,
        type: 3}
      propertyPath: m_Color.g
      value: 0.8113208
      objectReference: {fileID: 0}
    - target: {fileID: 182502441440068086, guid: bda68884ecd6a364690076a1fd553eca,
        type: 3}
      propertyPath: m_Color.b
      value: 0.6807479
      objectReference: {fileID: 0}
    m_RemovedComponents: []
  m_SourcePrefab: {fileID: 100100000, guid: bda68884ecd6a364690076a1fd553eca, type: 3}
